{
    "version": 4,
    "id": 1619382133572,
    "autoColormaps": false,
    "colormap": "Carr365",
    "autoImages": true,
    "image": "M_Babylone.png",
    "plugins": [
        {
            "lens": false,
            "name": "sin_oscillo_1",
            "displayName": "Sin oscillo 1",
            "version": 0,
            "mode": "overlay",
            "parameters": {
                "volume_scale": {
                    "value": 1.0
                }
            }
        },
        {
            "lens": false,
            "name": "blur_diagonal_1",
            "displayName": "Blur diagonal \\",
            "version": 0,
            "mode": "normal",
            "parameters": {
                "border_mode": {
                    "value": "Toroidal"
                }
            }
        },
        {
            "lens": true,
            "name": "rotozoom",
            "displayName": "Rotozoom",
            "version": 0,
            "mode": "normal"
        }
    ],
    "params3d": {
        "rotateAmount": 0.001,
        "rotateFactor": [
            0,
            0,
            0
        ],
        "rotations": [
            0.0,
            0.0,
            0.0
        ],
        "scaleFactorCoeff": 1,
        "boundary": "none"
    },
    "bandpassMin": 10,
    "bandpassMax": 245
}