{
    "version": 4,
    "id": 1621551506811,
    "autoColormaps": false,
    "colormap": "Op2",
    "autoImages": false,
    "image": "biohazard.png",
    "plugins": [
        {
            "lens": false,
            "name": "splash",
            "displayName": "Splash",
            "version": 0,
            "mode": "normal"
        },
        {
            "lens": false,
            "name": "blur_gaussian",
            "displayName": "Blur gaussian",
            "version": 0,
            "mode": "normal"
        },
        {
            "lens": false,
            "name": "tv_quark",
            "displayName": "TV quark",
            "version": 0,
            "mode": "overlay",
            "parameters": {
                "use_video": {
                    "value": false
                }
            }
        },
        {
            "lens": false,
            "name": "takens",
            "displayName": "Takens",
            "version": 0,
            "mode": "overlay",
            "parameters": {
                "volume_scale": {
                    "value": 1.0
                },
                "connect": {
                    "value": true
                },
                "span_size": {
                    "value": 6
                },
                "particles": {
                    "value": false
                },
                "stereo": {
                    "value": false
                },
                "use_aspect_ratio": {
                    "value": false
                }
            }
        }
    ],
    "params3d": {
        "rotateAmount": 0.001,
        "rotateFactor": [
            0,
            0,
            0
        ],
        "rotations": [
            0.0,
            0.0,
            0.0
        ],
        "scaleFactorCoeff": 1,
        "boundary": "none"
    },
    "bandpassMin": 10,
    "bandpassMax": 245
}