{
    "version": 4,
    "id": 1622194317856,
    "autoColormaps": false,
    "colormap": "Bright",
    "autoImages": false,
    "image": "gcu2.png",
    "plugins": [
        {
            "lens": false,
            "name": "image_drop",
            "displayName": "Image drops",
            "version": 0,
            "mode": "normal"
        },
        {
            "lens": false,
            "name": "rotors_freq",
            "displayName": "Rotors freq",
            "version": 0,
            "mode": "overlay",
            "parameters": {
                "nb_min_rotors": {
                    "value": 1
                },
                "proba_visible": {
                    "value": 0.33000000000000002
                },
                "scale": {
                    "value": 1.0
                },
                "length_min": {
                    "value": 0.01
                },
                "length_max": {
                    "value": 0.20000000000000001
                },
                "spectrum_id_factor": {
                    "value": 8.0
                },
                "speed": {
                    "value": 1.0
                }
            }
        },
        {
            "lens": false,
            "name": "mirror_right",
            "displayName": "Mirror right",
            "version": 0,
            "mode": "normal"
        },
        {
            "lens": false,
            "name": "blur_chemical",
            "displayName": "Blur chemical",
            "version": 0,
            "mode": "normal"
        }
    ],
    "params3d": {
        "rotateAmount": 0.001,
        "rotateFactor": [
            0,
            0,
            0
        ],
        "rotations": [
            0.0,
            0.0,
            0.0
        ],
        "scaleFactorCoeff": 1,
        "boundary": "none"
    },
    "bandpassMin": 10,
    "bandpassMax": 245
}