{
    "version": 4,
    "id": 1621252803143,
    "autoColormaps": false,
    "colormap": "Carr291",
    "autoImages": false,
    "image": "TILE.png",
    "plugins": [
        {
            "lens": false,
            "name": "image_drop",
            "displayName": "Image drops",
            "version": 0,
            "mode": "normal"
        },
        {
            "lens": false,
            "name": "blur_light",
            "displayName": "Blur light",
            "version": 0,
            "mode": "normal",
            "parameters": {
                "border_mode": {
                    "value": "Toroidal"
                }
            }
        },
        {
            "lens": false,
            "name": "oscillo_x",
            "displayName": "Oscillo horizontal",
            "version": 0,
            "mode": "overlay",
            "parameters": {
                "volume_scale": {
                    "value": 0.80000000000000004
                },
                "stereo": {
                    "value": false
                },
                "connect": {
                    "value": true
                }
            }
        }
    ],
    "params3d": {
        "rotateAmount": 0.001,
        "rotateFactor": [
            0,
            0,
            0
        ],
        "rotations": [
            0.0,
            0.0,
            0.0
        ],
        "scaleFactorCoeff": 1,
        "boundary": "none"
    },
    "bandpassMin": 10,
    "bandpassMax": 245
}