{
    "version": 4,
    "id": 1620918894535,
    "autoColormaps": false,
    "colormap": "Dax",
    "autoImages": false,
    "image": "1-hindu-mark.png",
    "plugins": [
        {
            "lens": false,
            "name": "sin_oscillo_2",
            "displayName": "Sin oscillo 2",
            "version": 0,
            "mode": "overlay",
            "parameters": {
                "volume_scale": {
                    "value": 1.0
                }
            }
        },
        {
            "lens": false,
            "name": "blur_horizontal",
            "displayName": "Blur horizontal",
            "version": 0,
            "mode": "normal",
            "parameters": {
                "border_mode": {
                    "value": "Toroidal"
                }
            }
        },
        {
            "lens": false,
            "name": "scroll_horizontal",
            "displayName": "Scroll horizontal",
            "version": 1,
            "mode": "normal",
            "parameters": {
                "direction": {
                    "value": "Random"
                }
            }
        },
        {
            "lens": true,
            "name": "edge_detect",
            "displayName": "Edge-detect",
            "version": 0,
            "mode": "normal"
        }
    ],
    "params3d": {
        "rotateAmount": 0.001,
        "rotateFactor": [
            0,
            0,
            0
        ],
        "rotations": [
            0.0,
            0.0,
            0.0
        ],
        "scaleFactorCoeff": 1,
        "boundary": "none"
    },
    "bandpassMin": 10,
    "bandpassMax": 245
}