{
    "version": 4,
    "id": 1622805165885,
    "autoColormaps": false,
    "colormap": "Ooh",
    "autoImages": false,
    "image": "peacesymbol.png",
    "plugins": [
        {
            "lens": false,
            "name": "blur_horizontal_colrot",
            "displayName": "Blur h + colrot",
            "version": 0,
            "mode": "normal"
        },
        {
            "lens": false,
            "name": "drops",
            "displayName": "Drops",
            "version": 0,
            "mode": "overlay"
        },
        {
            "lens": false,
            "name": "snake_oscillo",
            "displayName": "Snake oscillo",
            "version": 0,
            "mode": "overlay",
            "parameters": {
                "volume_scale": {
                    "value": 1.0
                },
                "mode": {
                    "value": 1
                },
                "length_min": {
                    "value": 0.01
                },
                "length_max": {
                    "value": 0.080000000000000002
                },
                "spectrum_id_factor": {
                    "value": 2.0
                },
                "color_factor": {
                    "value": 3.0
                }
            }
        }
    ],
    "params3d": {
        "rotateAmount": 0.001,
        "rotateFactor": [
            0,
            0,
            0
        ],
        "rotations": [
            0.0,
            0.0,
            0.0
        ],
        "scaleFactorCoeff": 1,
        "boundary": "none"
    },
    "bandpassMin": 10,
    "bandpassMax": 245
}