{
    "version": 0,
    "id": 1589059824,
    "auto_colormaps": false,
    "colormap": "11",
    "auto_images": false,
    "image": "00-lebiniou.png",
    "plugins": [
        {
            "lens": false,
            "name": "path_oscillo",
            "version": 0,
            "mode": "overlay",
            "parameters": {
                "path": {
                    "value": "circle"
                },
                "color_factor": {
                    "value": 3.5000000000000013
                },
                "scale": {
                    "value": 1.0
                },
                "volume_scale": {
                    "value": 0.40000000000000002
                },
                "length": {
                    "value": 200
                },
                "oscillo_length_factor": {
                    "value": 2
                },
                "windowing_factor": {
                    "value": 0.5
                }
            }
        },
        {
            "lens": false,
            "name": "space_out",
            "version": 0,
            "mode": "normal",
            "parameters": {
                "speed_factor": {
                    "value": 1.0
                }
            }
        }
    ]
}