{
    "version": 0,
    "id": 1589060317,
    "auto_colormaps": false,
    "colormap": "07",
    "auto_images": false,
    "image": "00-lebiniou.png",
    "plugins": [
        {
            "lens": false,
            "name": "path_oscillo_freq",
            "version": 0,
            "mode": "xor",
            "parameters": {
                "path": {
                    "value": "cat"
                },
                "color_factor": {
                    "value": 4.0000000000000018
                },
                "scale": {
                    "value": 1.0
                },
                "volume_scale": {
                    "value": 0.099999999999999992
                },
                "oscillo_length_factor": {
                    "value": 1
                },
                "windowing_factor": {
                    "value": 0.50000000000000011
                },
                "length_min": {
                    "value": 0.01
                },
                "length_max": {
                    "value": 0.080000000000000002
                },
                "spectrum_id_factor": {
                    "value": 8.0
                },
                "speed": {
                    "value": 1.0
                }
            }
        },
        {
            "lens": false,
            "name": "blur_cross",
            "version": 0,
            "mode": "normal",
            "parameters": {
                "border_mode": {
                    "value": "Toroidal"
                }
            }
        }
    ]
}